{"frames": {

"金币雨5_00107.png":
{
	"frame": {"x":99,"y":16,"w":3,"h":3},
	"rotated": false,
	"trimmed": true,
	"spriteSourceSize": {"x":0,"y":0,"w":3,"h":3},
	"sourceSize": {"w":750,"h":1700}
},
"金币雨5_00108.png":
{
	"frame": {"x":99,"y":16,"w":3,"h":3},
	"rotated": false,
	"trimmed": true,
	"spriteSourceSize": {"x":0,"y":0,"w":3,"h":3},
	"sourceSize": {"w":750,"h":1700}
},
"金币雨5_00109.png":
{
	"frame": {"x":99,"y":16,"w":3,"h":3},
	"rotated": false,
	"trimmed": true,
	"spriteSourceSize": {"x":0,"y":0,"w":3,"h":3},
	"sourceSize": {"w":750,"h":1700}
},
"金币雨5_00110.png":
{
	"frame": {"x":99,"y":16,"w":3,"h":3},
	"rotated": false,
	"trimmed": true,
	"spriteSourceSize": {"x":0,"y":0,"w":3,"h":3},
	"sourceSize": {"w":750,"h":1700}
},
"金币雨5_00111.png":
{
	"frame": {"x":99,"y":16,"w":3,"h":3},
	"rotated": false,
	"trimmed": true,
	"spriteSourceSize": {"x":0,"y":0,"w":3,"h":3},
	"sourceSize": {"w":750,"h":1700}
},
"金币雨5_00112.png":
{
	"frame": {"x":99,"y":16,"w":3,"h":3},
	"rotated": false,
	"trimmed": true,
	"spriteSourceSize": {"x":0,"y":0,"w":3,"h":3},
	"sourceSize": {"w":750,"h":1700}
},
"金币雨5_00113.png":
{
	"frame": {"x":99,"y":16,"w":3,"h":3},
	"rotated": false,
	"trimmed": true,
	"spriteSourceSize": {"x":0,"y":0,"w":3,"h":3},
	"sourceSize": {"w":750,"h":1700}
},
"金币雨5_00114.png":
{
	"frame": {"x":99,"y":1,"w":20,"h":13},
	"rotated": false,
	"trimmed": true,
	"spriteSourceSize": {"x":40,"y":0,"w":20,"h":13},
	"sourceSize": {"w":750,"h":1700}
},
"金币雨5_00115.png":
{
	"frame": {"x":1,"y":1256,"w":124,"h":88},
	"rotated": false,
	"trimmed": true,
	"spriteSourceSize": {"x":45,"y":10,"w":124,"h":88},
	"sourceSize": {"w":750,"h":1700}
},
"金币雨5_00116.png":
{
	"frame": {"x":1,"y":1436,"w":121,"h":86},
	"rotated": false,
	"trimmed": true,
	"spriteSourceSize": {"x":42,"y":114,"w":121,"h":86},
	"sourceSize": {"w":750,"h":1700}
},
"金币雨5_00117.png":
{
	"frame": {"x":1,"y":1524,"w":119,"h":85},
	"rotated": false,
	"trimmed": true,
	"spriteSourceSize": {"x":38,"y":227,"w":119,"h":85},
	"sourceSize": {"w":750,"h":1700}
},
"金币雨5_00118.png":
{
	"frame": {"x":1,"y":1346,"w":118,"h":88},
	"rotated": false,
	"trimmed": true,
	"spriteSourceSize": {"x":34,"y":346,"w":118,"h":88},
	"sourceSize": {"w":750,"h":1700}
},
"金币雨5_00119.png":
{
	"frame": {"x":1,"y":1162,"w":117,"h":92},
	"rotated": false,
	"trimmed": true,
	"spriteSourceSize": {"x":29,"y":470,"w":117,"h":92},
	"sourceSize": {"w":750,"h":1700}
},
"金币雨5_00120.png":
{
	"frame": {"x":1,"y":1063,"w":117,"h":97},
	"rotated": false,
	"trimmed": true,
	"spriteSourceSize": {"x":23,"y":598,"w":117,"h":97},
	"sourceSize": {"w":750,"h":1700}
},
"金币雨5_00121.png":
{
	"frame": {"x":1,"y":959,"w":117,"h":102},
	"rotated": false,
	"trimmed": true,
	"spriteSourceSize": {"x":17,"y":728,"w":117,"h":102},
	"sourceSize": {"w":750,"h":1700}
},
"金币雨5_00122.png":
{
	"frame": {"x":1,"y":847,"w":117,"h":110},
	"rotated": false,
	"trimmed": true,
	"spriteSourceSize": {"x":11,"y":857,"w":117,"h":110},
	"sourceSize": {"w":750,"h":1700}
},
"金币雨5_00123.png":
{
	"frame": {"x":1,"y":728,"w":116,"h":117},
	"rotated": false,
	"trimmed": true,
	"spriteSourceSize": {"x":6,"y":985,"w":116,"h":117},
	"sourceSize": {"w":750,"h":1700}
},
"金币雨5_00124.png":
{
	"frame": {"x":1,"y":600,"w":116,"h":126},
	"rotated": false,
	"trimmed": true,
	"spriteSourceSize": {"x":0,"y":1109,"w":116,"h":126},
	"sourceSize": {"w":750,"h":1700}
},
"金币雨5_00125.png":
{
	"frame": {"x":1,"y":463,"w":111,"h":135},
	"rotated": false,
	"trimmed": true,
	"spriteSourceSize": {"x":0,"y":1228,"w":111,"h":135},
	"sourceSize": {"w":750,"h":1700}
},
"金币雨5_00126.png":
{
	"frame": {"x":1,"y":317,"w":105,"h":144},
	"rotated": false,
	"trimmed": true,
	"spriteSourceSize": {"x":0,"y":1340,"w":105,"h":144},
	"sourceSize": {"w":750,"h":1700}
},
"金币雨5_00127.png":
{
	"frame": {"x":1,"y":163,"w":101,"h":152},
	"rotated": false,
	"trimmed": true,
	"spriteSourceSize": {"x":0,"y":1444,"w":101,"h":152},
	"sourceSize": {"w":750,"h":1700}
},
"金币雨5_00128.png":
{
	"frame": {"x":1,"y":1,"w":96,"h":160},
	"rotated": false,
	"trimmed": true,
	"spriteSourceSize": {"x":0,"y":1537,"w":96,"h":160},
	"sourceSize": {"w":750,"h":1700}
},
"金币雨5_00129.png":
{
	"frame": {"x":1,"y":1611,"w":92,"h":81},
	"rotated": false,
	"trimmed": true,
	"spriteSourceSize": {"x":0,"y":1619,"w":92,"h":81},
	"sourceSize": {"w":750,"h":1700}
},
"金币雨5_00130.png":
{
	"frame": {"x":1,"y":1694,"w":54,"h":14},
	"rotated": false,
	"trimmed": true,
	"spriteSourceSize": {"x":25,"y":1686,"w":54,"h":14},
	"sourceSize": {"w":750,"h":1700}
},
"金币雨5_00131.png":
{
	"frame": {"x":99,"y":16,"w":3,"h":3},
	"rotated": false,
	"trimmed": true,
	"spriteSourceSize": {"x":0,"y":0,"w":3,"h":3},
	"sourceSize": {"w":750,"h":1700}
},
"金币雨5_00132.png":
{
	"frame": {"x":99,"y":16,"w":3,"h":3},
	"rotated": false,
	"trimmed": true,
	"spriteSourceSize": {"x":0,"y":0,"w":3,"h":3},
	"sourceSize": {"w":750,"h":1700}
},
"金币雨5_00133.png":
{
	"frame": {"x":99,"y":16,"w":3,"h":3},
	"rotated": false,
	"trimmed": true,
	"spriteSourceSize": {"x":0,"y":0,"w":3,"h":3},
	"sourceSize": {"w":750,"h":1700}
},
"金币雨5_00134.png":
{
	"frame": {"x":99,"y":16,"w":3,"h":3},
	"rotated": false,
	"trimmed": true,
	"spriteSourceSize": {"x":0,"y":0,"w":3,"h":3},
	"sourceSize": {"w":750,"h":1700}
}},
"meta": {
	"app": "https://www.codeandweb.com/texturepacker",
	"version": "1.0",
	"image": "5.png",
	"format": "RGBA8888",
	"size": {"w":126,"h":1709},
	"scale": "1",
	"smartupdate": "$TexturePacker:SmartUpdate:4c368067fcf487504f176c3ad6c76d63:4cbc63449f05ec4cadb1bb35f35e683d:9addbf21a64760fa23b46a82ab6e4587$"
}
}
